/home/gab/prog_web/web-avaliacao1-2015-1/src/main/java/utfpr/faces/support/PageBean.java
/home/gab/prog_web/web-avaliacao1-2015-1/src/main/java/utfpr/faces/support/RequestBean.java
/home/gab/prog_web/web-avaliacao1-2015-1/src/main/java/utfpr/faces/support/SessionBean.java
/home/gab/prog_web/web-avaliacao1-2015-1/src/main/java/utfpr/faces/support/ApplicationBean.java
/home/gab/prog_web/web-avaliacao1-2015-1/src/main/java/utfpr/faces/support/FacesBean.java
